[
   {
      "time_period_start": "2022-01-01T00:00:00.0000000Z",
      "time_period_end": "2022-01-02T00:00:00.0000000Z",
      "time_open": "2022-01-01T00:00:00.0000000Z",
      "time_close": "2022-01-01T23:59:00.0000000Z",
      "rate_open": 46181.53857300336,
      "rate_high": 47907.82291921072,
      "rate_low": 46181.53857300336,
      "rate_close": 47756.2986494921
   },
   {
      "time_period_start": "2022-01-02T00:00:00.0000000Z",
      "time_period_end": "2022-01-03T00:00:00.0000000Z",
      "time_open": "2022-01-02T00:00:00.0000000Z",
      "time_close": "2022-01-02T23:59:00.0000000Z",
      "rate_open": 47726.01974707564,
      "rate_high": 47941.85128515801,
      "rate_low": 46735.64169659901,
      "rate_close": 47335.07097659414
   },
   {
      "time_period_start": "2022-01-03T00:00:00.0000000Z",
      "time_period_end": "2022-01-04T00:00:00.0000000Z",
      "time_open": "2022-01-03T00:00:00.0000000Z",
      "time_close": "2022-01-03T23:59:00.0000000Z",
      "rate_open": 47328.66148377371,
      "rate_high": 47544.76216621628,
      "rate_low": 45752.60731706673,
      "rate_close": 46434.298793154885
   },
   {
      "time_period_start": "2022-01-04T00:00:00.0000000Z",
      "time_period_end": "2022-01-05T00:00:00.0000000Z",
      "time_open": "2022-01-04T00:00:00.0000000Z",
      "time_close": "2022-01-04T23:59:00.0000000Z",
      "rate_open": 46447.62948596073,
      "rate_high": 47480.55264828505,
      "rate_low": 45619.045380672054,
      "rate_close": 45850.680183352575
   },
   {
      "time_period_start": "2022-01-05T00:00:00.0000000Z",
      "time_period_end": "2022-01-06T00:00:00.0000000Z",
      "time_open": "2022-01-05T00:00:00.0000000Z",
      "time_close": "2022-01-05T23:59:00.0000000Z",
      "rate_open": 45826.69217782574,
      "rate_high": 46998.230186050954,
      "rate_low": 42628.27202048286,
      "rate_close": 43499.07900675943
   },
   {
      "time_period_start": "2022-01-06T00:00:00.0000000Z",
      "time_period_end": "2022-01-07T00:00:00.0000000Z",
      "time_open": "2022-01-06T00:01:00.0000000Z",
      "time_close": "2022-01-06T23:59:00.0000000Z",
      "rate_open": 43434.58621370294,
      "rate_high": 43760.10484007678,
      "rate_low": 42548.41088475516,
      "rate_close": 43147.09236702497
   },
   {
      "time_period_start": "2022-01-07T00:00:00.0000000Z",
      "time_period_end": "2022-01-08T00:00:00.0000000Z",
      "time_open": "2022-01-07T00:00:00.0000000Z",
      "time_close": "2022-01-07T23:59:00.0000000Z",
      "rate_open": 43078.07879144041,
      "rate_high": 43129.96523131408,
      "rate_low": 40745.5179514502,
      "rate_close": 41522.1778526399
   },
   {
      "time_period_start": "2022-01-08T00:00:00.0000000Z",
      "time_period_end": "2022-01-09T00:00:00.0000000Z",
      "time_open": "2022-01-08T00:00:00.0000000Z",
      "time_close": "2022-01-08T23:59:00.0000000Z",
      "rate_open": 41539.98840441295,
      "rate_high": 42306.70065627924,
      "rate_low": 40597.05822075479,
      "rate_close": 41707.240948431245
   },
   {
      "time_period_start": "2022-01-09T00:00:00.0000000Z",
      "time_period_end": "2022-01-10T00:00:00.0000000Z",
      "time_open": "2022-01-09T00:00:00.0000000Z",
      "time_close": "2022-01-09T23:59:00.0000000Z",
      "rate_open": 41708.70740947322,
      "rate_high": 42751.60597660972,
      "rate_low": 41288.93869459807,
      "rate_close": 41873.14551035455
   },
   {
      "time_period_start": "2022-01-10T00:00:00.0000000Z",
      "time_period_end": "2022-01-11T00:00:00.0000000Z",
      "time_open": "2022-01-10T00:00:00.0000000Z",
      "time_close": "2022-01-10T23:59:00.0000000Z",
      "rate_open": 41870.17512402246,
      "rate_high": 42244.64184117276,
      "rate_low": 39676.12435151536,
      "rate_close": 41843.27561683216
   },
   {
      "time_period_start": "2022-01-11T00:00:00.0000000Z",
      "time_period_end": "2022-01-12T00:00:00.0000000Z",
      "time_open": "2022-01-11T00:00:00.0000000Z",
      "time_close": "2022-01-11T23:59:00.0000000Z",
      "rate_open": 41845.968572595724,
      "rate_high": 43097.9208637416,
      "rate_low": 41325.94478830072,
      "rate_close": 42708.770106505566
   },
   {
      "time_period_start": "2022-01-12T00:00:00.0000000Z",
      "time_period_end": "2022-01-13T00:00:00.0000000Z",
      "time_open": "2022-01-12T00:00:00.0000000Z",
      "time_close": "2022-01-12T23:59:00.0000000Z",
      "rate_open": 42749.91675722322,
      "rate_high": 44219.76105851323,
      "rate_low": 42492.62531439904,
      "rate_close": 43907.509543295426
   },
   {
      "time_period_start": "2022-01-13T00:00:00.0000000Z",
      "time_period_end": "2022-01-14T00:00:00.0000000Z",
      "time_open": "2022-01-13T00:00:00.0000000Z",
      "time_close": "2022-01-13T23:59:00.0000000Z",
      "rate_open": 43911.36546610299,
      "rate_high": 44380.866024977935,
      "rate_low": 42364.61281254353,
      "rate_close": 42521.41458020884
   },
   {
      "time_period_start": "2022-01-14T00:00:00.0000000Z",
      "time_period_end": "2022-01-15T00:00:00.0000000Z",
      "time_open": "2022-01-14T00:00:00.0000000Z",
      "time_close": "2022-01-14T23:59:00.0000000Z",
      "rate_open": 42546.54377890156,
      "rate_high": 43417.78433294808,
      "rate_low": 41837.56093274202,
      "rate_close": 43087.27828788164
   },
   {
      "time_period_start": "2022-01-15T00:00:00.0000000Z",
      "time_period_end": "2022-01-16T00:00:00.0000000Z",
      "time_open": "2022-01-15T00:00:00.0000000Z",
      "time_close": "2022-01-15T23:59:00.0000000Z",
      "rate_open": 43087.253678403744,
      "rate_high": 43775.617422244126,
      "rate_low": 42620.83109146922,
      "rate_close": 43122.543046802784
   },
   {
      "time_period_start": "2022-01-16T00:00:00.0000000Z",
      "time_period_end": "2022-01-17T00:00:00.0000000Z",
      "time_open": "2022-01-16T00:00:00.0000000Z",
      "time_close": "2022-01-16T23:59:00.0000000Z",
      "rate_open": 43122.28378985473,
      "rate_high": 43472.31302115539,
      "rate_low": 42672.979248461466,
      "rate_close": 43097.790711236965
   },
   {
      "time_period_start": "2022-01-17T00:00:00.0000000Z",
      "time_period_end": "2022-01-18T00:00:00.0000000Z",
      "time_open": "2022-01-17T00:00:00.0000000Z",
      "time_close": "2022-01-17T23:59:00.0000000Z",
      "rate_open": 43098.181094976004,
      "rate_high": 43189.71905940191,
      "rate_low": 41585.40328304421,
      "rate_close": 42247.24888036041
   },
   {
      "time_period_start": "2022-01-18T00:00:00.0000000Z",
      "time_period_end": "2022-01-19T00:00:00.0000000Z",
      "time_open": "2022-01-18T00:00:00.0000000Z",
      "time_close": "2022-01-18T23:59:00.0000000Z",
      "rate_open": 42223.21248740305,
      "rate_high": 42602.649997752225,
      "rate_low": 41310.09070648255,
      "rate_close": 42389.0985617556
   },
   {
      "time_period_start": "2022-01-19T00:00:00.0000000Z",
      "time_period_end": "2022-01-20T00:00:00.0000000Z",
      "time_open": "2022-01-19T00:00:00.0000000Z",
      "time_close": "2022-01-19T23:59:00.0000000Z",
      "rate_open": 42387.963768138135,
      "rate_high": 42562.65465306349,
      "rate_low": 41205.953373889744,
      "rate_close": 41713.68242784055
   },
   {
      "time_period_start": "2022-01-20T00:00:00.0000000Z",
      "time_period_end": "2022-01-21T00:00:00.0000000Z",
      "time_open": "2022-01-20T00:00:00.0000000Z",
      "time_close": "2022-01-20T23:59:00.0000000Z",
      "rate_open": 41681.53028377166,
      "rate_high": 43498.758401276245,
      "rate_low": 40579.483407564854,
      "rate_close": 40664.92450492671
   },
   {
      "time_period_start": "2022-01-21T00:00:00.0000000Z",
      "time_period_end": "2022-01-22T00:00:00.0000000Z",
      "time_open": "2022-01-21T00:00:00.0000000Z",
      "time_close": "2022-01-21T23:59:00.0000000Z",
      "rate_open": 40677.823107070704,
      "rate_high": 41090.00775601425,
      "rate_low": 35715.93588034524,
      "rate_close": 36465.234691107
   },
   {
      "time_period_start": "2022-01-22T00:00:00.0000000Z",
      "time_period_end": "2022-01-23T00:00:00.0000000Z",
      "time_open": "2022-01-22T00:00:00.0000000Z",
      "time_close": "2022-01-22T23:59:00.0000000Z",
      "rate_open": 36502.11513381942,
      "rate_high": 36704.44564745161,
      "rate_low": 34208.71868136293,
      "rate_close": 35035.717919725044
   },
   {
      "time_period_start": "2022-01-23T00:00:00.0000000Z",
      "time_period_end": "2022-01-24T00:00:00.0000000Z",
      "time_open": "2022-01-23T00:00:00.0000000Z",
      "time_close": "2022-01-23T23:59:00.0000000Z",
      "rate_open": 35068.03420431772,
      "rate_high": 36516.12748738295,
      "rate_low": 34673.96119310422,
      "rate_close": 36277.9776189883
   },
   {
      "time_period_start": "2022-01-24T00:00:00.0000000Z",
      "time_period_end": "2022-01-25T00:00:00.0000000Z",
      "time_open": "2022-01-24T00:00:00.0000000Z",
      "time_close": "2022-01-24T23:59:00.0000000Z",
      "rate_open": 36277.70479876076,
      "rate_high": 37412.394706177336,
      "rate_low": 33073.321859960386,
      "rate_close": 36675.53753997609
   },
   {
      "time_period_start": "2022-01-25T00:00:00.0000000Z",
      "time_period_end": "2022-01-26T00:00:00.0000000Z",
      "time_open": "2022-01-25T00:00:00.0000000Z",
      "time_close": "2022-01-25T23:59:00.0000000Z",
      "rate_open": 36682.181585498874,
      "rate_high": 37519.05454141948,
      "rate_low": 35725.06263279113,
      "rate_close": 36945.02480805505
   },
   {
      "time_period_start": "2022-01-26T00:00:00.0000000Z",
      "time_period_end": "2022-01-27T00:00:00.0000000Z",
      "time_open": "2022-01-26T00:00:00.0000000Z",
      "time_close": "2022-01-26T23:59:00.0000000Z",
      "rate_open": 36974.08844153306,
      "rate_high": 38872.57947357651,
      "rate_low": 36305.95292394497,
      "rate_close": 36827.63599962137
   },
   {
      "time_period_start": "2022-01-27T00:00:00.0000000Z",
      "time_period_end": "2022-01-28T00:00:00.0000000Z",
      "time_open": "2022-01-27T00:00:00.0000000Z",
      "time_close": "2022-01-27T23:59:00.0000000Z",
      "rate_open": 36820.3113746559,
      "rate_high": 37226.63751814763,
      "rate_low": 35539.719436794745,
      "rate_close": 37126.41121081212
   },
   {
      "time_period_start": "2022-01-28T00:00:00.0000000Z",
      "time_period_end": "2022-01-29T00:00:00.0000000Z",
      "time_open": "2022-01-28T00:00:00.0000000Z",
      "time_close": "2022-01-28T23:59:00.0000000Z",
      "rate_open": 37106.23705283979,
      "rate_high": 38005.870645694275,
      "rate_low": 36174.83763452503,
      "rate_close": 37758.0509238849
   },
   {
      "time_period_start": "2022-01-29T00:00:00.0000000Z",
      "time_period_end": "2022-01-30T00:00:00.0000000Z",
      "time_open": "2022-01-29T00:00:00.0000000Z",
      "time_close": "2022-01-29T23:59:00.0000000Z",
      "rate_open": 37762.68807925946,
      "rate_high": 38666.614352552446,
      "rate_low": 37364.82771126163,
      "rate_close": 38198.506687409055
   },
   {
      "time_period_start": "2022-01-30T00:00:00.0000000Z",
      "time_period_end": "2022-01-31T00:00:00.0000000Z",
      "time_open": "2022-01-30T00:00:00.0000000Z",
      "time_close": "2022-01-30T23:59:00.0000000Z",
      "rate_open": 38203.83216821664,
      "rate_high": 38336.20506337867,
      "rate_low": 37394.81782622195,
      "rate_close": 37905.21569209367
   },
   {
      "time_period_start": "2022-01-31T00:00:00.0000000Z",
      "time_period_end": "2022-02-01T00:00:00.0000000Z",
      "time_open": "2022-01-31T00:00:00.0000000Z",
      "time_close": "2022-01-31T23:59:00.0000000Z",
      "rate_open": 37901.368913974824,
      "rate_high": 38743.01444287103,
      "rate_low": 36692.439916961324,
      "rate_close": 38530.498377333475
   },
   {
      "time_period_start": "2022-02-01T00:00:00.0000000Z",
      "time_period_end": "2022-02-02T00:00:00.0000000Z",
      "time_open": "2022-02-01T00:00:00.0000000Z",
      "time_close": "2022-02-01T23:59:00.0000000Z",
      "rate_open": 38492.04799298902,
      "rate_high": 39241.708558008555,
      "rate_low": 38062.40639948299,
      "rate_close": 38727.05715291548
   },
   {
      "time_period_start": "2022-02-02T00:00:00.0000000Z",
      "time_period_end": "2022-02-03T00:00:00.0000000Z",
      "time_open": "2022-02-02T00:00:00.0000000Z",
      "time_close": "2022-02-02T23:59:00.0000000Z",
      "rate_open": 38712.70997436918,
      "rate_high": 38869.70067104544,
      "rate_low": 36677.52359166847,
      "rate_close": 36937.581848684364
   },
   {
      "time_period_start": "2022-02-03T00:00:00.0000000Z",
      "time_period_end": "2022-02-04T00:00:00.0000000Z",
      "time_open": "2022-02-03T00:00:00.0000000Z",
      "time_close": "2022-02-03T23:59:00.0000000Z",
      "rate_open": 36919.302380875844,
      "rate_high": 37238.214664788225,
      "rate_low": 36275.880459724765,
      "rate_close": 37238.214664788225
   },
   {
      "time_period_start": "2022-02-04T00:00:00.0000000Z",
      "time_period_end": "2022-02-05T00:00:00.0000000Z",
      "time_open": "2022-02-04T00:00:00.0000000Z",
      "time_close": "2022-02-04T23:59:00.0000000Z",
      "rate_open": 37325.70806168603,
      "rate_high": 41705.61693800971,
      "rate_low": 37060.81681836794,
      "rate_close": 41568.90419842335
   },
   {
      "time_period_start": "2022-02-05T00:00:00.0000000Z",
      "time_period_end": "2022-02-06T00:00:00.0000000Z",
      "time_open": "2022-02-05T00:00:00.0000000Z",
      "time_close": "2022-02-05T23:59:00.0000000Z",
      "rate_open": 41592.92451365189,
      "rate_high": 41905.78709678209,
      "rate_low": 41004.44163851928,
      "rate_close": 41443.120812556386
   },
   {
      "time_period_start": "2022-02-06T00:00:00.0000000Z",
      "time_period_end": "2022-02-07T00:00:00.0000000Z",
      "time_open": "2022-02-06T00:00:00.0000000Z",
      "time_close": "2022-02-06T23:59:00.0000000Z",
      "rate_open": 41466.69164937591,
      "rate_high": 42555.19031582135,
      "rate_low": 41137.45492102606,
      "rate_close": 42433.220697661345
   },
   {
      "time_period_start": "2022-02-07T00:00:00.0000000Z",
      "time_period_end": "2022-02-08T00:00:00.0000000Z",
      "time_open": "2022-02-07T00:00:00.0000000Z",
      "time_close": "2022-02-07T23:59:00.0000000Z",
      "rate_open": 42421.688262683456,
      "rate_high": 44503.61138347396,
      "rate_low": 41727.1154402343,
      "rate_close": 43852.75065606906
   },
   {
      "time_period_start": "2022-02-08T00:00:00.0000000Z",
      "time_period_end": "2022-02-09T00:00:00.0000000Z",
      "time_open": "2022-02-08T00:00:00.0000000Z",
      "time_close": "2022-02-08T23:59:00.0000000Z",
      "rate_open": 43853.728031278486,
      "rate_high": 45364.35100333115,
      "rate_low": 42745.53924534811,
      "rate_close": 44088.634337714684
   },
   {
      "time_period_start": "2022-02-09T00:00:00.0000000Z",
      "time_period_end": "2022-02-10T00:00:00.0000000Z",
      "time_open": "2022-02-09T00:00:00.0000000Z",
      "time_close": "2022-02-09T23:59:00.0000000Z",
      "rate_open": 44088.357147809395,
      "rate_high": 44818.52930518111,
      "rate_low": 43180.53282861318,
      "rate_close": 44412.02583252829
   },
   {
      "time_period_start": "2022-02-10T00:00:00.0000000Z",
      "time_period_end": "2022-02-11T00:00:00.0000000Z",
      "time_open": "2022-02-10T00:00:00.0000000Z",
      "time_close": "2022-02-10T23:59:00.0000000Z",
      "rate_open": 44406.19069911719,
      "rate_high": 45782.27934374906,
      "rate_low": 43238.98909724458,
      "rate_close": 43525.90188923252
   },
   {
      "time_period_start": "2022-02-11T00:00:00.0000000Z",
      "time_period_end": "2022-02-12T00:00:00.0000000Z",
      "time_open": "2022-02-11T00:00:00.0000000Z",
      "time_close": "2022-02-11T23:59:00.0000000Z",
      "rate_open": 43527.89638268199,
      "rate_high": 43885.65709584907,
      "rate_low": 42042.618103213674,
      "rate_close": 42386.57110447867
   },
   {
      "time_period_start": "2022-02-12T00:00:00.0000000Z",
      "time_period_end": "2022-02-13T00:00:00.0000000Z",
      "time_open": "2022-02-12T00:00:00.0000000Z",
      "time_close": "2022-02-12T23:59:00.0000000Z",
      "rate_open": 42387.79816958002,
      "rate_high": 43032.077097035515,
      "rate_low": 41811.188116311474,
      "rate_close": 42222.34250606582
   },
   {
      "time_period_start": "2022-02-13T00:00:00.0000000Z",
      "time_period_end": "2022-02-14T00:00:00.0000000Z",
      "time_open": "2022-02-13T00:00:00.0000000Z",
      "time_close": "2022-02-13T23:59:00.0000000Z",
      "rate_open": 42231.06230547743,
      "rate_high": 42740.75369463179,
      "rate_low": 41913.427888348844,
      "rate_close": 42053.310250483984
   },
   {
      "time_period_start": "2022-02-14T00:00:00.0000000Z",
      "time_period_end": "2022-02-15T00:00:00.0000000Z",
      "time_open": "2022-02-14T00:00:00.0000000Z",
      "time_close": "2022-02-14T23:59:00.0000000Z",
      "rate_open": 42066.203786513775,
      "rate_high": 42810.80006310582,
      "rate_low": 41647.63358780758,
      "rate_close": 42579.40236130812
   },
   {
      "time_period_start": "2022-02-15T00:00:00.0000000Z",
      "time_period_end": "2022-02-16T00:00:00.0000000Z",
      "time_open": "2022-02-15T00:00:00.0000000Z",
      "time_close": "2022-02-15T23:59:00.0000000Z",
      "rate_open": 42556.62976145148,
      "rate_high": 44752.30682308442,
      "rate_low": 42484.618835857706,
      "rate_close": 44524.86168566206
   },
   {
      "time_period_start": "2022-02-16T00:00:00.0000000Z",
      "time_period_end": "2022-02-17T00:00:00.0000000Z",
      "time_open": "2022-02-16T00:00:00.0000000Z",
      "time_close": "2022-02-16T23:59:00.0000000Z",
      "rate_open": 44512.88820867226,
      "rate_high": 44568.39572416995,
      "rate_low": 43392.33129036077,
      "rate_close": 43922.39711896003
   },
   {
      "time_period_start": "2022-02-17T00:00:00.0000000Z",
      "time_period_end": "2022-02-18T00:00:00.0000000Z",
      "time_open": "2022-02-17T00:00:00.0000000Z",
      "time_close": "2022-02-17T23:59:00.0000000Z",
      "rate_open": 43871.26274977304,
      "rate_high": 44182.95830685542,
      "rate_low": 40146.67374411555,
      "rate_close": 40498.938608854565
   },
   {
      "time_period_start": "2022-02-18T00:00:00.0000000Z",
      "time_period_end": "2022-02-19T00:00:00.0000000Z",
      "time_open": "2022-02-18T00:00:00.0000000Z",
      "time_close": "2022-02-18T23:59:00.0000000Z",
      "rate_open": 40542.41008153843,
      "rate_high": 40956.1034347424,
      "rate_low": 39588.077485414186,
      "rate_close": 40017.45339515778
   },
   {
      "time_period_start": "2022-02-19T00:00:00.0000000Z",
      "time_period_end": "2022-02-20T00:00:00.0000000Z",
      "time_open": "2022-02-19T00:00:00.0000000Z",
      "time_close": "2022-02-19T23:59:00.0000000Z",
      "rate_open": 39993.91025076794,
      "rate_high": 40450.99657426001,
      "rate_low": 39685.434998351884,
      "rate_close": 40112.9203053826
   },
   {
      "time_period_start": "2022-02-20T00:00:00.0000000Z",
      "time_period_end": "2022-02-21T00:00:00.0000000Z",
      "time_open": "2022-02-20T00:00:00.0000000Z",
      "time_close": "2022-02-20T23:59:00.0000000Z",
      "rate_open": 40111.15162509687,
      "rate_high": 40130.133627988966,
      "rate_low": 38047.60857748455,
      "rate_close": 38398.38578743866
   },
   {
      "time_period_start": "2022-02-21T00:00:00.0000000Z",
      "time_period_end": "2022-02-22T00:00:00.0000000Z",
      "time_open": "2022-02-21T00:00:00.0000000Z",
      "time_close": "2022-02-21T23:59:00.0000000Z",
      "rate_open": 38379.522986755306,
      "rate_high": 39466.41123787443,
      "rate_low": 36880.6886181057,
      "rate_close": 37068.876134633676
   },
   {
      "time_period_start": "2022-02-22T00:00:00.0000000Z",
      "time_period_end": "2022-02-23T00:00:00.0000000Z",
      "time_open": "2022-02-22T00:00:00.0000000Z",
      "time_close": "2022-02-22T23:59:00.0000000Z",
      "rate_open": 37027.62306189945,
      "rate_high": 38409.049087883155,
      "rate_low": 36409.08892810101,
      "rate_close": 38239.031646675016
   },
   {
      "time_period_start": "2022-02-23T00:00:00.0000000Z",
      "time_period_end": "2022-02-24T00:00:00.0000000Z",
      "time_open": "2022-02-23T00:00:00.0000000Z",
      "time_close": "2022-02-23T23:59:00.0000000Z",
      "rate_open": 38242.32975300252,
      "rate_high": 39208.28383112975,
      "rate_low": 37105.602655343275,
      "rate_close": 37255.54651052421
   },
   {
      "time_period_start": "2022-02-24T00:00:00.0000000Z",
      "time_period_end": "2022-02-25T00:00:00.0000000Z",
      "time_open": "2022-02-24T00:00:00.0000000Z",
      "time_close": "2022-02-24T23:59:00.0000000Z",
      "rate_open": 37260.338318879905,
      "rate_high": 39433.46683727535,
      "rate_low": 34356.53947415998,
      "rate_close": 38338.313765699495
   },
   {
      "time_period_start": "2022-02-25T00:00:00.0000000Z",
      "time_period_end": "2022-02-26T00:00:00.0000000Z",
      "time_open": "2022-02-25T00:00:00.0000000Z",
      "time_close": "2022-02-25T23:59:00.0000000Z",
      "rate_open": 38338.891077705426,
      "rate_high": 39687.468906222784,
      "rate_low": 38050.68126846312,
      "rate_close": 39237.015337349054
   },
   {
      "time_period_start": "2022-02-26T00:00:00.0000000Z",
      "time_period_end": "2022-02-27T00:00:00.0000000Z",
      "time_open": "2022-02-26T00:00:00.0000000Z",
      "time_close": "2022-02-26T23:59:00.0000000Z",
      "rate_open": 39242.17862022733,
      "rate_high": 40154.13050981708,
      "rate_low": 38670.21673036637,
      "rate_close": 39111.856131905646
   },
   {
      "time_period_start": "2022-02-27T00:00:00.0000000Z",
      "time_period_end": "2022-02-28T00:00:00.0000000Z",
      "time_open": "2022-02-27T00:00:00.0000000Z",
      "time_close": "2022-02-27T23:59:00.0000000Z",
      "rate_open": 39107.87247080964,
      "rate_high": 39806.28259396038,
      "rate_low": 37047.99931687545,
      "rate_close": 37712.73351228911
   },
   {
      "time_period_start": "2022-02-28T00:00:00.0000000Z",
      "time_period_end": "2022-03-01T00:00:00.0000000Z",
      "time_open": "2022-02-28T00:00:00.0000000Z",
      "time_close": "2022-02-28T23:59:00.0000000Z",
      "rate_open": 37708.95186293505,
      "rate_high": 43976.55487614775,
      "rate_low": 37473.28814394786,
      "rate_close": 43203.756110365735
   },
   {
      "time_period_start": "2022-03-01T00:00:00.0000000Z",
      "time_period_end": "2022-03-02T00:00:00.0000000Z",
      "time_open": "2022-03-01T00:00:00.0000000Z",
      "time_close": "2022-03-01T23:59:00.0000000Z",
      "rate_open": 43208.37087976243,
      "rate_high": 44909.841576253886,
      "rate_low": 42894.29917309173,
      "rate_close": 44423.06331720691
   },
   {
      "time_period_start": "2022-03-02T00:00:00.0000000Z",
      "time_period_end": "2022-03-03T00:00:00.0000000Z",
      "time_open": "2022-03-02T00:00:00.0000000Z",
      "time_close": "2022-03-02T23:59:00.0000000Z",
      "rate_open": 44438.51534226718,
      "rate_high": 45282.02603926144,
      "rate_low": 43362.51485670719,
      "rate_close": 43921.201287824624
   },
   {
      "time_period_start": "2022-03-03T00:00:00.0000000Z",
      "time_period_end": "2022-03-04T00:00:00.0000000Z",
      "time_open": "2022-03-03T00:00:00.0000000Z",
      "time_close": "2022-03-03T23:59:00.0000000Z",
      "rate_open": 43911.81358315498,
      "rate_high": 44075.27365312971,
      "rate_low": 41836.91495941253,
      "rate_close": 42441.23763947877
   },
   {
      "time_period_start": "2022-03-04T00:00:00.0000000Z",
      "time_period_end": "2022-03-05T00:00:00.0000000Z",
      "time_open": "2022-03-04T00:00:00.0000000Z",
      "time_close": "2022-03-04T23:59:00.0000000Z",
      "rate_open": 42458.29873687806,
      "rate_high": 42510.84400625051,
      "rate_low": 38633.55567051057,
      "rate_close": 39120.97664061362
   },
   {
      "time_period_start": "2022-03-05T00:00:00.0000000Z",
      "time_period_end": "2022-03-06T00:00:00.0000000Z",
      "time_open": "2022-03-05T00:00:00.0000000Z",
      "time_close": "2022-03-05T23:59:00.0000000Z",
      "rate_open": 39158.74632663762,
      "rate_high": 39579.8456899427,
      "rate_low": 38707.71925708335,
      "rate_close": 39390.474130284114
   },
   {
      "time_period_start": "2022-03-06T00:00:00.0000000Z",
      "time_period_end": "2022-03-07T00:00:00.0000000Z",
      "time_open": "2022-03-06T00:00:00.0000000Z",
      "time_close": "2022-03-06T23:59:00.0000000Z",
      "rate_open": 39406.69660758441,
      "rate_high": 39640.48370489047,
      "rate_low": 38138.722111119714,
      "rate_close": 38400.92947769941
   },
   {
      "time_period_start": "2022-03-07T00:00:00.0000000Z",
      "time_period_end": "2022-03-08T00:00:00.0000000Z",
      "time_open": "2022-03-07T00:00:00.0000000Z",
      "time_close": "2022-03-07T23:59:00.0000000Z",
      "rate_open": 38417.81552173106,
      "rate_high": 39534.270447508316,
      "rate_low": 37190.40828869942,
      "rate_close": 38067.8435626283
   },
   {
      "time_period_start": "2022-03-08T00:00:00.0000000Z",
      "time_period_end": "2022-03-09T00:00:00.0000000Z",
      "time_open": "2022-03-08T00:00:00.0000000Z",
      "time_close": "2022-03-08T23:59:00.0000000Z",
      "rate_open": 38006.86350823775,
      "rate_high": 39368.90545716513,
      "rate_low": 37883.95822812457,
      "rate_close": 38752.19033370123
   },
   {
      "time_period_start": "2022-03-09T00:00:00.0000000Z",
      "time_period_end": "2022-03-10T00:00:00.0000000Z",
      "time_open": "2022-03-09T00:00:00.0000000Z",
      "time_close": "2022-03-09T23:59:00.0000000Z",
      "rate_open": 38752.6711732219,
      "rate_high": 42572.1771884939,
      "rate_low": 38674.926775928085,
      "rate_close": 41970.571540570374
   },
   {
      "time_period_start": "2022-03-10T00:00:00.0000000Z",
      "time_period_end": "2022-03-11T00:00:00.0000000Z",
      "time_open": "2022-03-10T00:00:00.0000000Z",
      "time_close": "2022-03-10T23:59:00.0000000Z",
      "rate_open": 41953.59331713385,
      "rate_high": 42032.66322309597,
      "rate_low": 38753.05744288977,
      "rate_close": 39420.21943298365
   },
   {
      "time_period_start": "2022-03-11T00:00:00.0000000Z",
      "time_period_end": "2022-03-12T00:00:00.0000000Z",
      "time_open": "2022-03-11T00:00:00.0000000Z",
      "time_close": "2022-03-11T23:59:00.0000000Z",
      "rate_open": 39438.64506365942,
      "rate_high": 40143.75893424998,
      "rate_low": 38255.06251001544,
      "rate_close": 38742.610521286304
   },
   {
      "time_period_start": "2022-03-12T00:00:00.0000000Z",
      "time_period_end": "2022-03-13T00:00:00.0000000Z",
      "time_open": "2022-03-12T00:00:00.0000000Z",
      "time_close": "2022-03-12T23:59:00.0000000Z",
      "rate_open": 38737.94826338515,
      "rate_high": 39350.82192024235,
      "rate_low": 38677.07816047249,
      "rate_close": 38754.08062960938
   },
   {
      "time_period_start": "2022-03-13T00:00:00.0000000Z",
      "time_period_end": "2022-03-14T00:00:00.0000000Z",
      "time_open": "2022-03-13T00:00:00.0000000Z",
      "time_close": "2022-03-13T23:59:00.0000000Z",
      "rate_open": 38756.15492999879,
      "rate_high": 39251.1884410106,
      "rate_low": 37618.786083124214,
      "rate_close": 37837.22124493571
   },
   {
      "time_period_start": "2022-03-14T00:00:00.0000000Z",
      "time_period_end": "2022-03-15T00:00:00.0000000Z",
      "time_open": "2022-03-14T00:00:00.0000000Z",
      "time_close": "2022-03-14T23:59:00.0000000Z",
      "rate_open": 37824.52150230668,
      "rate_high": 39784.51410629348,
      "rate_low": 37631.573247762324,
      "rate_close": 39695.66871365386
   },
   {
      "time_period_start": "2022-03-15T00:00:00.0000000Z",
      "time_period_end": "2022-03-16T00:00:00.0000000Z",
      "time_open": "2022-03-15T00:00:00.0000000Z",
      "time_close": "2022-03-15T23:59:00.0000000Z",
      "rate_open": 39678.77641469865,
      "rate_high": 39845.49603025098,
      "rate_low": 38205.891204422136,
      "rate_close": 39322.286015619866
   },
   {
      "time_period_start": "2022-03-16T00:00:00.0000000Z",
      "time_period_end": "2022-03-17T00:00:00.0000000Z",
      "time_open": "2022-03-16T00:00:00.0000000Z",
      "time_close": "2022-03-16T23:59:00.0000000Z",
      "rate_open": 39304.59622585047,
      "rate_high": 41638.6033841515,
      "rate_low": 38977.410606486126,
      "rate_close": 41130.89658210626
   },
   {
      "time_period_start": "2022-03-17T00:00:00.0000000Z",
      "time_period_end": "2022-03-18T00:00:00.0000000Z",
      "time_open": "2022-03-17T00:00:00.0000000Z",
      "time_close": "2022-03-17T23:59:00.0000000Z",
      "rate_open": 41130.91887201269,
      "rate_high": 41410.252143585916,
      "rate_low": 40607.595999379926,
      "rate_close": 40977.48914612956
   },
   {
      "time_period_start": "2022-03-18T00:00:00.0000000Z",
      "time_period_end": "2022-03-19T00:00:00.0000000Z",
      "time_open": "2022-03-18T00:00:00.0000000Z",
      "time_close": "2022-03-18T23:59:00.0000000Z",
      "rate_open": 40953.08852264664,
      "rate_high": 42299.971568759036,
      "rate_low": 40245.78707519177,
      "rate_close": 41814.44775136723
   },
   {
      "time_period_start": "2022-03-19T00:00:00.0000000Z",
      "time_period_end": "2022-03-20T00:00:00.0000000Z",
      "time_open": "2022-03-19T00:00:00.0000000Z",
      "time_close": "2022-03-19T23:59:00.0000000Z",
      "rate_open": 41808.041840553284,
      "rate_high": 42374.79300489823,
      "rate_low": 41579.04279946741,
      "rate_close": 42229.524528388494
   },
   {
      "time_period_start": "2022-03-20T00:00:00.0000000Z",
      "time_period_end": "2022-03-21T00:00:00.0000000Z",
      "time_open": "2022-03-20T00:00:00.0000000Z",
      "time_close": "2022-03-20T23:59:00.0000000Z",
      "rate_open": 42228.201107350265,
      "rate_high": 42296.77122525467,
      "rate_low": 40978.00727909802,
      "rate_close": 41249.85510681685
   },
   {
      "time_period_start": "2022-03-21T00:00:00.0000000Z",
      "time_period_end": "2022-03-22T00:00:00.0000000Z",
      "time_open": "2022-03-21T00:00:00.0000000Z",
      "time_close": "2022-03-21T23:59:00.0000000Z",
      "rate_open": 41281.07974696989,
      "rate_high": 41504.20194469672,
      "rate_low": 40549.493650841265,
      "rate_close": 41068.22019252577
   },
   {
      "time_period_start": "2022-03-22T00:00:00.0000000Z",
      "time_period_end": "2022-03-23T00:00:00.0000000Z",
      "time_open": "2022-03-22T00:00:00.0000000Z",
      "time_close": "2022-03-22T23:59:00.0000000Z",
      "rate_open": 41061.71797210725,
      "rate_high": 43259.33152060177,
      "rate_low": 40899.08101695407,
      "rate_close": 42375.17064301124
   },
   {
      "time_period_start": "2022-03-23T00:00:00.0000000Z",
      "time_period_end": "2022-03-24T00:00:00.0000000Z",
      "time_open": "2022-03-23T00:00:00.0000000Z",
      "time_close": "2022-03-23T23:59:00.0000000Z",
      "rate_open": 42375.08515801241,
      "rate_high": 42970.33116735093,
      "rate_low": 41805.81825471593,
      "rate_close": 42947.74969890796
   },
   {
      "time_period_start": "2022-03-24T00:00:00.0000000Z",
      "time_period_end": "2022-03-25T00:00:00.0000000Z",
      "time_open": "2022-03-24T00:00:00.0000000Z",
      "time_close": "2022-03-24T23:59:00.0000000Z",
      "rate_open": 42931.82804854424,
      "rate_high": 44209.53298815209,
      "rate_low": 42708.57916641063,
      "rate_close": 43998.79304228929
   },
   {
      "time_period_start": "2022-03-25T00:00:00.0000000Z",
      "time_period_end": "2022-03-26T00:00:00.0000000Z",
      "time_open": "2022-03-25T00:00:00.0000000Z",
      "time_close": "2022-03-25T23:59:00.0000000Z",
      "rate_open": 44008.205822779775,
      "rate_high": 45105.73196448545,
      "rate_low": 43673.98482994277,
      "rate_close": 44314.52710484405
   },
   {
      "time_period_start": "2022-03-26T00:00:00.0000000Z",
      "time_period_end": "2022-03-27T00:00:00.0000000Z",
      "time_open": "2022-03-26T00:00:00.0000000Z",
      "time_close": "2022-03-26T23:59:00.0000000Z",
      "rate_open": 44314.094253370095,
      "rate_high": 44796.87593449495,
      "rate_low": 44112.47949310013,
      "rate_close": 44554.54460934033
   },
   {
      "time_period_start": "2022-03-27T00:00:00.0000000Z",
      "time_period_end": "2022-03-28T00:00:00.0000000Z",
      "time_open": "2022-03-27T00:00:00.0000000Z",
      "time_close": "2022-03-27T23:59:00.0000000Z",
      "rate_open": 44561.6667224122,
      "rate_high": 46882.365533390315,
      "rate_low": 44455.55650533542,
      "rate_close": 46844.613405642696
   },
   {
      "time_period_start": "2022-03-28T00:00:00.0000000Z",
      "time_period_end": "2022-03-29T00:00:00.0000000Z",
      "time_open": "2022-03-28T00:00:00.0000000Z",
      "time_close": "2022-03-28T23:59:00.0000000Z",
      "rate_open": 46844.53256926178,
      "rate_high": 48201.03863240218,
      "rate_low": 46684.33789250758,
      "rate_close": 47189.21207134061
   },
   {
      "time_period_start": "2022-03-29T00:00:00.0000000Z",
      "time_period_end": "2022-03-30T00:00:00.0000000Z",
      "time_open": "2022-03-29T00:00:00.0000000Z",
      "time_close": "2022-03-29T23:59:00.0000000Z",
      "rate_open": 47124.272590859,
      "rate_high": 48089.187011842725,
      "rate_low": 47099.21472340311,
      "rate_close": 47481.62325372279
   },
   {
      "time_period_start": "2022-03-30T00:00:00.0000000Z",
      "time_period_end": "2022-03-31T00:00:00.0000000Z",
      "time_open": "2022-03-30T00:00:00.0000000Z",
      "time_close": "2022-03-30T23:59:00.0000000Z",
      "rate_open": 47452.02799008538,
      "rate_high": 47697.64751596131,
      "rate_low": 46702.29365398943,
      "rate_close": 47034.70347141542
   },
   {
      "time_period_start": "2022-03-31T00:00:00.0000000Z",
      "time_period_end": "2022-04-01T00:00:00.0000000Z",
      "time_open": "2022-03-31T00:00:00.0000000Z",
      "time_close": "2022-03-31T23:59:00.0000000Z",
      "rate_open": 47039.13401080955,
      "rate_high": 47568.833230830634,
      "rate_low": 45245.10423203024,
      "rate_close": 45513.60979161756
   },
   {
      "time_period_start": "2022-04-01T00:00:00.0000000Z",
      "time_period_end": "2022-04-02T00:00:00.0000000Z",
      "time_open": "2022-04-01T00:00:00.0000000Z",
      "time_close": "2022-04-01T23:59:00.0000000Z",
      "rate_open": 45503.57386105067,
      "rate_high": 46708.73216354792,
      "rate_low": 44315.26050629307,
      "rate_close": 46296.30202032862
   },
   {
      "time_period_start": "2022-04-02T00:00:00.0000000Z",
      "time_period_end": "2022-04-03T00:00:00.0000000Z",
      "time_open": "2022-04-02T00:00:00.0000000Z",
      "time_close": "2022-04-02T23:59:00.0000000Z",
      "rate_open": 46284.345470416556,
      "rate_high": 47207.77695324783,
      "rate_low": 45729.32478805958,
      "rate_close": 45817.86913006052
   },
   {
      "time_period_start": "2022-04-03T00:00:00.0000000Z",
      "time_period_end": "2022-04-04T00:00:00.0000000Z",
      "time_open": "2022-04-03T00:00:00.0000000Z",
      "time_close": "2022-04-03T23:59:00.0000000Z",
      "rate_open": 45807.3712234915,
      "rate_high": 47414.61883485715,
      "rate_low": 45574.39658019029,
      "rate_close": 46435.65797863774
   },
   {
      "time_period_start": "2022-04-04T00:00:00.0000000Z",
      "time_period_end": "2022-04-05T00:00:00.0000000Z",
      "time_open": "2022-04-04T00:00:00.0000000Z",
      "time_close": "2022-04-04T23:59:00.0000000Z",
      "rate_open": 46410.28748202726,
      "rate_high": 46888.86662734148,
      "rate_low": 45188.0070583195,
      "rate_close": 46619.029683936584
   },
   {
      "time_period_start": "2022-04-05T00:00:00.0000000Z",
      "time_period_end": "2022-04-06T00:00:00.0000000Z",
      "time_open": "2022-04-05T00:00:00.0000000Z",
      "time_close": "2022-04-05T23:59:00.0000000Z",
      "rate_open": 46617.599401972824,
      "rate_high": 47151.439014584415,
      "rate_low": 45387.906175192125,
      "rate_close": 45550.5396484446
   },
   {
      "time_period_start": "2022-04-06T00:00:00.0000000Z",
      "time_period_end": "2022-04-07T00:00:00.0000000Z",
      "time_open": "2022-04-06T00:00:00.0000000Z",
      "time_close": "2022-04-06T23:59:00.0000000Z",
      "rate_open": 45502.326923752116,
      "rate_high": 45514.60026278845,
      "rate_low": 43146.60465427605,
      "rate_close": 43173.03519377945
   },
   {
      "time_period_start": "2022-04-07T00:00:00.0000000Z",
      "time_period_end": "2022-04-08T00:00:00.0000000Z",
      "time_open": "2022-04-07T00:00:00.0000000Z",
      "time_close": "2022-04-07T23:59:00.0000000Z",
      "rate_open": 43174.406512237234,
      "rate_high": 43874.03406044972,
      "rate_low": 42802.20875592285,
      "rate_close": 43465.0479608331
   },
   {
      "time_period_start": "2022-04-08T00:00:00.0000000Z",
      "time_period_end": "2022-04-09T00:00:00.0000000Z",
      "time_open": "2022-04-08T00:00:00.0000000Z",
      "time_close": "2022-04-08T23:59:00.0000000Z",
      "rate_open": 43437.53623578305,
      "rate_high": 43971.38583564159,
      "rate_low": 42133.33005260757,
      "rate_close": 42269.347137208824
   },
   {
      "time_period_start": "2022-04-09T00:00:00.0000000Z",
      "time_period_end": "2022-04-10T00:00:00.0000000Z",
      "time_open": "2022-04-09T00:00:00.0000000Z",
      "time_close": "2022-04-09T23:59:00.0000000Z",
      "rate_open": 42284.267728649604,
      "rate_high": 42795.92215217764,
      "rate_low": 42149.270330255524,
      "rate_close": 42783.38460995472
   },
   {
      "time_period_start": "2022-04-10T00:00:00.0000000Z",
      "time_period_end": "2022-04-11T00:00:00.0000000Z",
      "time_open": "2022-04-10T00:00:00.0000000Z",
      "time_close": "2022-04-10T23:59:00.0000000Z",
      "rate_open": 42771.28792944573,
      "rate_high": 43411.714506542594,
      "rate_low": 41919.92094851428,
      "rate_close": 42143.96446605757
   },
   {
      "time_period_start": "2022-04-11T00:00:00.0000000Z",
      "time_period_end": "2022-04-12T00:00:00.0000000Z",
      "time_open": "2022-04-11T00:00:00.0000000Z",
      "time_close": "2022-04-11T23:59:00.0000000Z",
      "rate_open": 42130.40614485336,
      "rate_high": 42413.56730507109,
      "rate_low": 39319.80812300898,
      "rate_close": 39483.636619532015
   },
   {
      "time_period_start": "2022-04-12T00:00:00.0000000Z",
      "time_period_end": "2022-04-13T00:00:00.0000000Z",
      "time_open": "2022-04-12T00:00:00.0000000Z",
      "time_close": "2022-04-12T23:59:00.0000000Z",
      "rate_open": 39496.27397295505,
      "rate_high": 40637.48064105782,
      "rate_low": 39314.124367240765,
      "rate_close": 40100.205392227275
   },
   {
      "time_period_start": "2022-04-13T00:00:00.0000000Z",
      "time_period_end": "2022-04-14T00:00:00.0000000Z",
      "time_open": "2022-04-13T00:00:00.0000000Z",
      "time_close": "2022-04-13T23:59:00.0000000Z",
      "rate_open": 40084.72339027052,
      "rate_high": 41469.30915758316,
      "rate_low": 39609.57811345319,
      "rate_close": 41164.43490050606
   },
   {
      "time_period_start": "2022-04-14T00:00:00.0000000Z",
      "time_period_end": "2022-04-15T00:00:00.0000000Z",
      "time_open": "2022-04-14T00:00:00.0000000Z",
      "time_close": "2022-04-14T23:59:00.0000000Z",
      "rate_open": 41145.53594148469,
      "rate_high": 41491.87110943758,
      "rate_low": 39643.27767384252,
      "rate_close": 39951.153925329665
   },
   {
      "time_period_start": "2022-04-15T00:00:00.0000000Z",
      "time_period_end": "2022-04-16T00:00:00.0000000Z",
      "time_open": "2022-04-15T00:00:00.0000000Z",
      "time_close": "2022-04-15T23:59:00.0000000Z",
      "rate_open": 39953.06342527369,
      "rate_high": 40635.22914822289,
      "rate_low": 39795.41264780734,
      "rate_close": 40573.567543145655
   },
   {
      "time_period_start": "2022-04-16T00:00:00.0000000Z",
      "time_period_end": "2022-04-17T00:00:00.0000000Z",
      "time_open": "2022-04-16T00:00:00.0000000Z",
      "time_close": "2022-04-16T23:59:00.0000000Z",
      "rate_open": 40572.04576412348,
      "rate_high": 40662.63127431784,
      "rate_low": 40042.577981198185,
      "rate_close": 40402.77369085789
   },
   {
      "time_period_start": "2022-04-17T00:00:00.0000000Z",
      "time_period_end": "2022-04-18T00:00:00.0000000Z",
      "time_open": "2022-04-17T00:00:00.0000000Z",
      "time_close": "2022-04-17T23:59:00.0000000Z",
      "rate_open": 40389.13389999577,
      "rate_high": 40583.94615454764,
      "rate_low": 39608.74035863191,
      "rate_close": 39718.011698600145
   },
   {
      "time_period_start": "2022-04-18T00:00:00.0000000Z",
      "time_period_end": "2022-04-19T00:00:00.0000000Z",
      "time_open": "2022-04-18T00:00:00.0000000Z",
      "time_close": "2022-04-18T23:59:00.0000000Z",
      "rate_open": 39690.353789945126,
      "rate_high": 41034.85513191922,
      "rate_low": 38661.14086006429,
      "rate_close": 40813.41571393401
   },
   {
      "time_period_start": "2022-04-19T00:00:00.0000000Z",
      "time_period_end": "2022-04-20T00:00:00.0000000Z",
      "time_open": "2022-04-19T00:00:00.0000000Z",
      "time_close": "2022-04-19T23:59:00.0000000Z",
      "rate_open": 40813.112982421015,
      "rate_high": 41723.33978309132,
      "rate_low": 40612.718065896064,
      "rate_close": 41507.87043892656
   },
   {
      "time_period_start": "2022-04-20T00:00:00.0000000Z",
      "time_period_end": "2022-04-21T00:00:00.0000000Z",
      "time_open": "2022-04-20T00:00:00.0000000Z",
      "time_close": "2022-04-20T23:59:00.0000000Z",
      "rate_open": 41501.44353684719,
      "rate_high": 42176.6352871201,
      "rate_low": 40930.62625662232,
      "rate_close": 41386.75162115399
   },
   {
      "time_period_start": "2022-04-21T00:00:00.0000000Z",
      "time_period_end": "2022-04-22T00:00:00.0000000Z",
      "time_open": "2022-04-21T00:00:00.0000000Z",
      "time_close": "2022-04-21T23:59:00.0000000Z",
      "rate_open": 41387.185191819866,
      "rate_high": 42939.577573422845,
      "rate_low": 39968.393430840726,
      "rate_close": 40521.50421518165
   },
   {
      "time_period_start": "2022-04-22T00:00:00.0000000Z",
      "time_period_end": "2022-04-23T00:00:00.0000000Z",
      "time_open": "2022-04-22T00:00:00.0000000Z",
      "time_close": "2022-04-22T23:59:00.0000000Z",
      "rate_open": 40486.91331226257,
      "rate_high": 40789.3251023132,
      "rate_low": 39198.02904406031,
      "rate_close": 39726.7053745521
   },
   {
      "time_period_start": "2022-04-23T00:00:00.0000000Z",
      "time_period_end": "2022-04-24T00:00:00.0000000Z",
      "time_open": "2022-04-23T00:00:00.0000000Z",
      "time_close": "2022-04-23T23:59:00.0000000Z",
      "rate_open": 39726.75411185548,
      "rate_high": 39981.368863636766,
      "rate_low": 39324.990754204206,
      "rate_close": 39445.65314511627
   },
   {
      "time_period_start": "2022-04-24T00:00:00.0000000Z",
      "time_period_end": "2022-04-25T00:00:00.0000000Z",
      "time_open": "2022-04-24T00:00:00.0000000Z",
      "time_close": "2022-04-24T23:59:00.0000000Z",
      "rate_open": 39448.593409817004,
      "rate_high": 39866.67613923873,
      "rate_low": 39030.13538323619,
      "rate_close": 39475.628351593725
   },
   {
      "time_period_start": "2022-04-25T00:00:00.0000000Z",
      "time_period_end": "2022-04-26T00:00:00.0000000Z",
      "time_open": "2022-04-25T00:00:00.0000000Z",
      "time_close": "2022-04-25T23:59:00.0000000Z",
      "rate_open": 39469.752490623054,
      "rate_high": 40561.042862324815,
      "rate_low": 38297.594870597066,
      "rate_close": 40458.59117046089
   },
   {
      "time_period_start": "2022-04-26T00:00:00.0000000Z",
      "time_period_end": "2022-04-27T00:00:00.0000000Z",
      "time_open": "2022-04-26T00:00:00.0000000Z",
      "time_close": "2022-04-26T23:59:00.0000000Z",
      "rate_open": 40449.06125018254,
      "rate_high": 40747.36639769819,
      "rate_low": 37758.848969761355,
      "rate_close": 38121.52953411509
   },
   {
      "time_period_start": "2022-04-27T00:00:00.0000000Z",
      "time_period_end": "2022-04-28T00:00:00.0000000Z",
      "time_open": "2022-04-27T00:00:00.0000000Z",
      "time_close": "2022-04-27T23:59:00.0000000Z",
      "rate_open": 38124.083843713015,
      "rate_high": 39442.42426428698,
      "rate_low": 37930.72650332061,
      "rate_close": 39244.45736948951
   },
   {
      "time_period_start": "2022-04-28T00:00:00.0000000Z",
      "time_period_end": "2022-04-29T00:00:00.0000000Z",
      "time_open": "2022-04-28T00:00:00.0000000Z",
      "time_close": "2022-04-28T23:59:00.0000000Z",
      "rate_open": 39244.7017476947,
      "rate_high": 40322.97989620466,
      "rate_low": 38911.21495256172,
      "rate_close": 39773.5100352274
   },
   {
      "time_period_start": "2022-04-29T00:00:00.0000000Z",
      "time_period_end": "2022-04-30T00:00:00.0000000Z",
      "time_open": "2022-04-29T00:00:00.0000000Z",
      "time_close": "2022-04-29T23:59:00.0000000Z",
      "rate_open": 39757.39007355191,
      "rate_high": 39905.614404105465,
      "rate_low": 38205.08233999647,
      "rate_close": 38582.54432510055
   },
   {
      "time_period_start": "2022-04-30T00:00:00.0000000Z",
      "time_period_end": "2022-05-01T00:00:00.0000000Z",
      "time_open": "2022-04-30T00:00:00.0000000Z",
      "time_close": "2022-04-30T23:59:00.0000000Z",
      "rate_open": 38579.71516323897,
      "rate_high": 38772.821527970744,
      "rate_low": 37623.72701574976,
      "rate_close": 37665.01899717028
   },
   {
      "time_period_start": "2022-05-01T00:00:00.0000000Z",
      "time_period_end": "2022-05-02T00:00:00.0000000Z",
      "time_open": "2022-05-01T00:00:00.0000000Z",
      "time_close": "2022-05-01T23:59:00.0000000Z",
      "rate_open": 37664.94521406618,
      "rate_high": 38653.99811536967,
      "rate_low": 37515.35202815871,
      "rate_close": 38457.823051469735
   },
   {
      "time_period_start": "2022-05-02T00:00:00.0000000Z",
      "time_period_end": "2022-05-03T00:00:00.0000000Z",
      "time_open": "2022-05-02T00:00:00.0000000Z",
      "time_close": "2022-05-02T23:59:00.0000000Z",
      "rate_open": 38463.25954856107,
      "rate_high": 39093.416419552705,
      "rate_low": 38087.38485210727,
      "rate_close": 38510.45045805715
   },
   {
      "time_period_start": "2022-05-03T00:00:00.0000000Z",
      "time_period_end": "2022-05-04T00:00:00.0000000Z",
      "time_open": "2022-05-03T00:00:00.0000000Z",
      "time_close": "2022-05-03T23:59:00.0000000Z",
      "rate_open": 38508.20537562179,
      "rate_high": 38629.664004552025,
      "rate_low": 37518.493403205604,
      "rate_close": 37720.299828220974
   },
   {
      "time_period_start": "2022-05-04T00:00:00.0000000Z",
      "time_period_end": "2022-05-05T00:00:00.0000000Z",
      "time_open": "2022-05-04T00:00:00.0000000Z",
      "time_close": "2022-05-04T23:59:00.0000000Z",
      "rate_open": 37724.89839462576,
      "rate_high": 39951.48779711252,
      "rate_low": 37669.01151356267,
      "rate_close": 39677.62793412376
   },
   {
      "time_period_start": "2022-05-05T00:00:00.0000000Z",
      "time_period_end": "2022-05-06T00:00:00.0000000Z",
      "time_open": "2022-05-05T00:00:00.0000000Z",
      "time_close": "2022-05-05T23:59:00.0000000Z",
      "rate_open": 39675.08274812384,
      "rate_high": 39793.889317343506,
      "rate_low": 35720.85147044915,
      "rate_close": 36550.67016123735
   },
   {
      "time_period_start": "2022-05-06T00:00:00.0000000Z",
      "time_period_end": "2022-05-07T00:00:00.0000000Z",
      "time_open": "2022-05-06T00:00:00.0000000Z",
      "time_close": "2022-05-06T23:59:00.0000000Z",
      "rate_open": 36549.30746677886,
      "rate_high": 36617.570014604746,
      "rate_low": 35332.72165733132,
      "rate_close": 36013.62479671164
   },
   {
      "time_period_start": "2022-05-07T00:00:00.0000000Z",
      "time_period_end": "2022-05-08T00:00:00.0000000Z",
      "time_open": "2022-05-07T00:00:00.0000000Z",
      "time_close": "2022-05-07T23:59:00.0000000Z",
      "rate_open": 36006.364781043856,
      "rate_high": 36112.32760914303,
      "rate_low": 34918.14139258294,
      "rate_close": 35462.67848610158
   },
   {
      "time_period_start": "2022-05-08T00:00:00.0000000Z",
      "time_period_end": "2022-05-09T00:00:00.0000000Z",
      "time_open": "2022-05-08T00:00:00.0000000Z",
      "time_close": "2022-05-08T23:59:00.0000000Z",
      "rate_open": 35461.86944036613,
      "rate_high": 35473.75183514309,
      "rate_low": 33776.28970567795,
      "rate_close": 34083.487119753794
   },
   {
      "time_period_start": "2022-05-09T00:00:00.0000000Z",
      "time_period_end": "2022-05-10T00:00:00.0000000Z",
      "time_open": "2022-05-09T00:00:00.0000000Z",
      "time_close": "2022-05-09T23:59:00.0000000Z",
      "rate_open": 34043.3462677983,
      "rate_high": 34203.79504051949,
      "rate_low": 30150.012132660024,
      "rate_close": 30150.012132660024
   },
   {
      "time_period_start": "2022-05-10T00:00:00.0000000Z",
      "time_period_end": "2022-05-11T00:00:00.0000000Z",
      "time_open": "2022-05-10T00:00:00.0000000Z",
      "time_close": "2022-05-10T23:59:00.0000000Z",
      "rate_open": 30137.023878642005,
      "rate_high": 32602.800165094446,
      "rate_low": 29841.435190336848,
      "rate_close": 31005.713153621316
   },
   {
      "time_period_start": "2022-05-11T00:00:00.0000000Z",
      "time_period_end": "2022-05-12T00:00:00.0000000Z",
      "time_open": "2022-05-11T00:00:00.0000000Z",
      "time_close": "2022-05-11T23:59:00.0000000Z",
      "rate_open": 31004.89633016529,
      "rate_high": 32052.682738219635,
      "rate_low": 27998.13450683435,
      "rate_close": 28871.624004509114
   },
   {
      "time_period_start": "2022-05-12T00:00:00.0000000Z",
      "time_period_end": "2022-05-13T00:00:00.0000000Z",
      "time_open": "2022-05-12T00:00:00.0000000Z",
      "time_close": "2022-05-12T23:59:00.0000000Z",
      "rate_open": 28929.892266465245,
      "rate_high": 30020.18796178857,
      "rate_low": 25493.043439119927,
      "rate_close": 28975.06655146973
   },
   {
      "time_period_start": "2022-05-13T00:00:00.0000000Z",
      "time_period_end": "2022-05-14T00:00:00.0000000Z",
      "time_open": "2022-05-13T00:00:00.0000000Z",
      "time_close": "2022-05-13T23:59:00.0000000Z",
      "rate_open": 28944.506902309953,
      "rate_high": 30935.159267219864,
      "rate_low": 28695.801136747643,
      "rate_close": 29245.056445864233
   },
   {
      "time_period_start": "2022-05-14T00:00:00.0000000Z",
      "time_period_end": "2022-05-15T00:00:00.0000000Z",
      "time_open": "2022-05-14T00:00:00.0000000Z",
      "time_close": "2022-05-14T23:59:00.0000000Z",
      "rate_open": 29233.73641370385,
      "rate_high": 30228.339960175115,
      "rate_low": 28637.057023209716,
      "rate_close": 30049.686373721226
   },
   {
      "time_period_start": "2022-05-15T00:00:00.0000000Z",
      "time_period_end": "2022-05-16T00:00:00.0000000Z",
      "time_open": "2022-05-15T00:00:00.0000000Z",
      "time_close": "2022-05-15T23:59:00.0000000Z",
      "rate_open": 30045.040929570652,
      "rate_high": 31336.158897277586,
      "rate_low": 29470.04072621032,
      "rate_close": 31279.485615918198
   },
   {
      "time_period_start": "2022-05-16T00:00:00.0000000Z",
      "time_period_end": "2022-05-17T00:00:00.0000000Z",
      "time_open": "2022-05-16T00:00:00.0000000Z",
      "time_close": "2022-05-16T23:59:00.0000000Z",
      "rate_open": 31286.820807224343,
      "rate_high": 31286.820807224343,
      "rate_low": 29187.187750607263,
      "rate_close": 29828.24255814821
   },
   {
      "time_period_start": "2022-05-17T00:00:00.0000000Z",
      "time_period_end": "2022-05-18T00:00:00.0000000Z",
      "time_open": "2022-05-17T00:00:00.0000000Z",
      "time_close": "2022-05-17T23:59:00.0000000Z",
      "rate_open": 29827.620350886293,
      "rate_high": 30695.532018028338,
      "rate_low": 29477.91065542859,
      "rate_close": 30412.28960644075
   },
   {
      "time_period_start": "2022-05-18T00:00:00.0000000Z",
      "time_period_end": "2022-05-19T00:00:00.0000000Z",
      "time_open": "2022-05-18T00:00:00.0000000Z",
      "time_close": "2022-05-18T23:59:00.0000000Z",
      "rate_open": 30412.444976012503,
      "rate_high": 30650.92734313496,
      "rate_low": 28651.331346773834,
      "rate_close": 28651.331346773834
   },
   {
      "time_period_start": "2022-05-19T00:00:00.0000000Z",
      "time_period_end": "2022-05-20T00:00:00.0000000Z",
      "time_open": "2022-05-19T00:00:00.0000000Z",
      "time_close": "2022-05-19T23:59:00.0000000Z",
      "rate_open": 28628.82071228753,
      "rate_high": 30480.73638988906,
      "rate_low": 28628.82071228753,
      "rate_close": 30282.613908070893
   },
   {
      "time_period_start": "2022-05-20T00:00:00.0000000Z",
      "time_period_end": "2022-05-21T00:00:00.0000000Z",
      "time_open": "2022-05-20T00:00:00.0000000Z",
      "time_close": "2022-05-20T23:59:00.0000000Z",
      "rate_open": 30278.44952016864,
      "rate_high": 30694.48870125745,
      "rate_low": 28714.412892275748,
      "rate_close": 29157.933200556854
   },
   {
      "time_period_start": "2022-05-21T00:00:00.0000000Z",
      "time_period_end": "2022-05-22T00:00:00.0000000Z",
      "time_open": "2022-05-21T00:00:00.0000000Z",
      "time_close": "2022-05-21T23:59:00.0000000Z",
      "rate_open": 29152.298230946817,
      "rate_high": 29575.925348222132,
      "rate_low": 28971.370417385708,
      "rate_close": 29421.89336016386
   },
   {
      "time_period_start": "2022-05-22T00:00:00.0000000Z",
      "time_period_end": "2022-05-23T00:00:00.0000000Z",
      "time_open": "2022-05-22T00:00:00.0000000Z",
      "time_close": "2022-05-22T23:59:00.0000000Z",
      "rate_open": 29420.43855607936,
      "rate_high": 30434.193710283136,
      "rate_low": 29235.794211599354,
      "rate_close": 30302.982090689522
   },
   {
      "time_period_start": "2022-05-23T00:00:00.0000000Z",
      "time_period_end": "2022-05-24T00:00:00.0000000Z",
      "time_open": "2022-05-23T00:00:00.0000000Z",
      "time_close": "2022-05-23T23:59:00.0000000Z",
      "rate_open": 30260.276721381782,
      "rate_high": 30628.765618950292,
      "rate_low": 28918.74221828049,
      "rate_close": 29072.7809214409
   },
   {
      "time_period_start": "2022-05-24T00:00:00.0000000Z",
      "time_period_end": "2022-05-25T00:00:00.0000000Z",
      "time_open": "2022-05-24T00:00:00.0000000Z",
      "time_close": "2022-05-24T23:59:00.0000000Z",
      "rate_open": 29069.157620422284,
      "rate_high": 29788.909451140473,
      "rate_low": 28696.59827091315,
      "rate_close": 29633.620586001693
   },
   {
      "time_period_start": "2022-05-25T00:00:00.0000000Z",
      "time_period_end": "2022-05-26T00:00:00.0000000Z",
      "time_open": "2022-05-25T00:00:00.0000000Z",
      "time_close": "2022-05-25T23:59:00.0000000Z",
      "rate_open": 29626.84779074121,
      "rate_high": 30166.82842345401,
      "rate_low": 29327.474542560874,
      "rate_close": 29521.649871531907
   },
   {
      "time_period_start": "2022-05-26T00:00:00.0000000Z",
      "time_period_end": "2022-05-27T00:00:00.0000000Z",
      "time_open": "2022-05-26T00:00:00.0000000Z",
      "time_close": "2022-05-26T23:59:00.0000000Z",
      "rate_open": 29511.00051032043,
      "rate_high": 29843.304299453554,
      "rate_low": 28178.50256170018,
      "rate_close": 29208.274539194303
   },
   {
      "time_period_start": "2022-05-27T00:00:00.0000000Z",
      "time_period_end": "2022-05-28T00:00:00.0000000Z",
      "time_open": "2022-05-27T00:00:00.0000000Z",
      "time_close": "2022-05-27T23:59:00.0000000Z",
      "rate_open": 29148.673965655868,
      "rate_high": 29346.156552932247,
      "rate_low": 28263.03654065534,
      "rate_close": 28574.670484997943
   },
   {
      "time_period_start": "2022-05-28T00:00:00.0000000Z",
      "time_period_end": "2022-05-29T00:00:00.0000000Z",
      "time_open": "2022-05-28T00:00:00.0000000Z",
      "time_close": "2022-05-28T23:59:00.0000000Z",
      "rate_open": 28591.195608208025,
      "rate_high": 29196.10038410548,
      "rate_low": 28512.614979528556,
      "rate_close": 29015.083868139576
   },
   {
      "time_period_start": "2022-05-29T00:00:00.0000000Z",
      "time_period_end": "2022-05-30T00:00:00.0000000Z",
      "time_open": "2022-05-29T00:00:00.0000000Z",
      "time_close": "2022-05-29T23:59:00.0000000Z",
      "rate_open": 29006.96538211411,
      "rate_high": 29523.359652711522,
      "rate_low": 28827.063859242586,
      "rate_close": 29448.28683600757
   },
   {
      "time_period_start": "2022-05-30T00:00:00.0000000Z",
      "time_period_end": "2022-05-31T00:00:00.0000000Z",
      "time_open": "2022-05-30T00:00:00.0000000Z",
      "time_close": "2022-05-30T23:59:00.0000000Z",
      "rate_open": 29447.148800394527,
      "rate_high": 32104.552957853077,
      "rate_low": 29286.456459982044,
      "rate_close": 31726.983908055805
   },
   {
      "time_period_start": "2022-05-31T00:00:00.0000000Z",
      "time_period_end": "2022-06-01T00:00:00.0000000Z",
      "time_open": "2022-05-31T00:00:00.0000000Z",
      "time_close": "2022-05-31T23:59:00.0000000Z",
      "rate_open": 31724.479547511502,
      "rate_high": 32279.23117802161,
      "rate_low": 31207.802364497147,
      "rate_close": 31772.89949598087
   },
   {
      "time_period_start": "2022-06-01T00:00:00.0000000Z",
      "time_period_end": "2022-06-02T00:00:00.0000000Z",
      "time_open": "2022-06-01T00:00:00.0000000Z",
      "time_close": "2022-06-01T23:59:00.0000000Z",
      "rate_open": 31760.98615277732,
      "rate_high": 31948.40824533563,
      "rate_low": 29410.846349912554,
      "rate_close": 29775.342295232527
   },
   {
      "time_period_start": "2022-06-02T00:00:00.0000000Z",
      "time_period_end": "2022-06-03T00:00:00.0000000Z",
      "time_open": "2022-06-02T00:00:00.0000000Z",
      "time_close": "2022-06-02T23:59:59.8000000Z",
      "rate_open": 29787.543023349976,
      "rate_high": 30622.23945366871,
      "rate_low": 29587.981354179938,
      "rate_close": 30402.22321948748
   },
   {
      "time_period_start": "2022-06-03T00:00:00.0000000Z",
      "time_period_end": "2022-06-04T00:00:00.0000000Z",
      "time_open": "2022-06-03T00:00:00.1000000Z",
      "time_close": "2022-06-03T23:59:59.9000000Z",
      "rate_open": 30402.0998616501,
      "rate_high": 30654.073892210454,
      "rate_low": 29271.46024954298,
      "rate_close": 29691.072556087405
   },
   {
      "time_period_start": "2022-06-04T00:00:00.0000000Z",
      "time_period_end": "2022-06-05T00:00:00.0000000Z",
      "time_open": "2022-06-04T00:00:00.5000000Z",
      "time_close": "2022-06-04T23:59:59.8000000Z",
      "rate_open": 29691.20899357798,
      "rate_high": 29960.842158440126,
      "rate_low": 29475.6226447403,
      "rate_close": 29847.16265689898
   },
   {
      "time_period_start": "2022-06-05T00:00:00.0000000Z",
      "time_period_end": "2022-06-06T00:00:00.0000000Z",
      "time_open": "2022-06-05T00:02:00.0000000Z",
      "time_close": "2022-06-05T23:59:00.0000000Z",
      "rate_open": 29852.76022571576,
      "rate_high": 30132.51857728082,
      "rate_low": 29535.24237781287,
      "rate_close": 29906.417387863905
   },
   {
      "time_period_start": "2022-06-06T00:00:00.0000000Z",
      "time_period_end": "2022-06-07T00:00:00.0000000Z",
      "time_open": "2022-06-06T00:00:00.0000000Z",
      "time_close": "2022-06-06T23:59:00.0000000Z",
      "rate_open": 29896.564064909355,
      "rate_high": 31715.76359041427,
      "rate_low": 29857.80175097369,
      "rate_close": 31356.491472298163
   },
   {
      "time_period_start": "2022-06-07T00:00:00.0000000Z",
      "time_period_end": "2022-06-08T00:00:00.0000000Z",
      "time_open": "2022-06-07T00:00:00.0000000Z",
      "time_close": "2022-06-07T23:59:59.0000000Z",
      "rate_open": 31346.817161609597,
      "rate_high": 31492.880963801934,
      "rate_low": 29264.294271689512,
      "rate_close": 31052.037350076047
   },
   {
      "time_period_start": "2022-06-08T00:00:00.0000000Z",
      "time_period_end": "2022-06-09T00:00:00.0000000Z",
      "time_open": "2022-06-08T00:00:01.0000000Z",
      "time_close": "2022-06-08T23:59:59.0000000Z",
      "rate_open": 31057.99621146051,
      "rate_high": 31288.70731439099,
      "rate_low": 29841.728828037478,
      "rate_close": 30222.11193667506
   },
   {
      "time_period_start": "2022-06-09T00:00:00.0000000Z",
      "time_period_end": "2022-06-10T00:00:00.0000000Z",
      "time_open": "2022-06-09T00:00:00.0000000Z",
      "time_close": "2022-06-09T23:59:59.0000000Z",
      "rate_open": 30221.739076780592,
      "rate_high": 30716.441902972758,
      "rate_low": 30008.353038903075,
      "rate_close": 30107.976360625362
   },
   {
      "time_period_start": "2022-06-10T00:00:00.0000000Z",
      "time_period_end": "2022-06-11T00:00:00.0000000Z",
      "time_open": "2022-06-10T00:00:00.0000000Z",
      "time_close": "2022-06-10T23:59:59.0000000Z",
      "rate_open": 30242.118088871302,
      "rate_high": 30526.57526393219,
      "rate_low": 28919.504960677903,
      "rate_close": 29140.408690751527
   },
   {
      "time_period_start": "2022-06-11T00:00:00.0000000Z",
      "time_period_end": "2022-06-12T00:00:00.0000000Z",
      "time_open": "2022-06-11T00:00:00.0000000Z",
      "time_close": "2022-06-11T23:59:59.0000000Z",
      "rate_open": 29147.754278167784,
      "rate_high": 29509.191822069446,
      "rate_low": 28176.16086251767,
      "rate_close": 28439.909564236183
   },
   {
      "time_period_start": "2022-06-12T00:00:00.0000000Z",
      "time_period_end": "2022-06-13T00:00:00.0000000Z",
      "time_open": "2022-06-12T00:00:00.0000000Z",
      "time_close": "2022-06-12T23:59:59.0000000Z",
      "rate_open": 28445.56685546852,
      "rate_high": 28569.513414807003,
      "rate_low": 26568.043102900272,
      "rate_close": 26582.628650897383
   },
   {
      "time_period_start": "2022-06-13T00:00:00.0000000Z",
      "time_period_end": "2022-06-14T00:00:00.0000000Z",
      "time_open": "2022-06-13T00:00:00.0000000Z",
      "time_close": "2022-06-13T23:59:59.0000000Z",
      "rate_open": 26576.994511985824,
      "rate_high": 26872.747350962647,
      "rate_low": 21964.094605758455,
      "rate_close": 22479.648489946892
   },
   {
      "time_period_start": "2022-06-14T00:00:00.0000000Z",
      "time_period_end": "2022-06-15T00:00:00.0000000Z",
      "time_open": "2022-06-14T00:02:00.0000000Z",
      "time_close": "2022-06-14T23:59:00.0000000Z",
      "rate_open": 22328.169994646985,
      "rate_high": 23286.750034507077,
      "rate_low": 20871.625302145167,
      "rate_close": 22167.550501019025
   },
   {
      "time_period_start": "2022-06-15T00:00:00.0000000Z",
      "time_period_end": "2022-06-16T00:00:00.0000000Z",
      "time_open": "2022-06-15T00:00:00.0000000Z",
      "time_close": "2022-06-15T23:59:59.0000000Z",
      "rate_open": 22110.03290551066,
      "rate_high": 22744.78208273135,
      "rate_low": 20073.535372045673,
      "rate_close": 22551.026968016024
   },
   {
      "time_period_start": "2022-06-16T00:00:00.0000000Z",
      "time_period_end": "2022-06-17T00:00:00.0000000Z",
      "time_open": "2022-06-16T00:00:00.0000000Z",
      "time_close": "2022-06-16T23:59:59.0000000Z",
      "rate_open": 22549.327063590146,
      "rate_high": 22944.301131947945,
      "rate_low": 20114.80447686266,
      "rate_close": 20320.87951168157
   },
   {
      "time_period_start": "2022-06-17T00:00:00.0000000Z",
      "time_period_end": "2022-06-18T00:00:00.0000000Z",
      "time_open": "2022-06-17T00:02:00.0000000Z",
      "time_close": "2022-06-17T23:59:00.0000000Z",
      "rate_open": 20346.766331734656,
      "rate_high": 21292.703194756512,
      "rate_low": 20136.617314463027,
      "rate_close": 20440.471524356457
   },
   {
      "time_period_start": "2022-06-18T00:00:00.0000000Z",
      "time_period_end": "2022-06-19T00:00:00.0000000Z",
      "time_open": "2022-06-18T00:00:00.0000000Z",
      "time_close": "2022-06-18T23:59:00.0000000Z",
      "rate_open": 20443.12113743875,
      "rate_high": 20685.718311421664,
      "rate_low": 17605.38672137449,
      "rate_close": 18986.29074669368
   },
   {
      "time_period_start": "2022-06-19T00:00:00.0000000Z",
      "time_period_end": "2022-06-20T00:00:00.0000000Z",
      "time_open": "2022-06-19T00:00:00.0000000Z",
      "time_close": "2022-06-19T23:59:00.0000000Z",
      "rate_open": 18948.948449447624,
      "rate_high": 20742.836066940654,
      "rate_low": 17977.7305934943,
      "rate_close": 20561.199968697656
   },
   {
      "time_period_start": "2022-06-20T00:00:00.0000000Z",
      "time_period_end": "2022-06-21T00:00:00.0000000Z",
      "time_open": "2022-06-20T00:00:00.0000000Z",
      "time_close": "2022-06-20T23:59:00.0000000Z",
      "rate_open": 20554.60351037323,
      "rate_high": 20969.43285884336,
      "rate_low": 19639.12603587597,
      "rate_close": 20551.40262298311
   },
   {
      "time_period_start": "2022-06-21T00:00:00.0000000Z",
      "time_period_end": "2022-06-22T00:00:00.0000000Z",
      "time_open": "2022-06-21T00:00:00.0000000Z",
      "time_close": "2022-06-21T23:59:59.0000000Z",
      "rate_open": 20551.666897570285,
      "rate_high": 21695.68952864915,
      "rate_low": 20331.842756293052,
      "rate_close": 20708.6466603818
   },
   {
      "time_period_start": "2022-06-22T00:00:00.0000000Z",
      "time_period_end": "2022-06-23T00:00:00.0000000Z",
      "time_open": "2022-06-22T00:00:00.0000000Z",
      "time_close": "2022-06-22T23:59:59.0000000Z",
      "rate_open": 20709.047134650824,
      "rate_high": 20853.521977826425,
      "rate_low": 19744.171721572235,
      "rate_close": 19951.131456932526
   },
   {
      "time_period_start": "2022-06-23T00:00:00.0000000Z",
      "time_period_end": "2022-06-24T00:00:00.0000000Z",
      "time_open": "2022-06-23T00:00:00.0000000Z",
      "time_close": "2022-06-23T23:59:59.0000000Z",
      "rate_open": 19953.87754872728,
      "rate_high": 21188.59377350711,
      "rate_low": 19859.05076874997,
      "rate_close": 21090.633704111573
   },
   {
      "time_period_start": "2022-06-24T00:00:00.0000000Z",
      "time_period_end": "2022-06-25T00:00:00.0000000Z",
      "time_open": "2022-06-24T00:00:00.0000000Z",
      "time_close": "2022-06-24T23:59:59.0000000Z",
      "rate_open": 21088.13740928229,
      "rate_high": 21516.891165834237,
      "rate_low": 20710.72798238874,
      "rate_close": 21214.175057773733
   },
   {
      "time_period_start": "2022-06-25T00:00:00.0000000Z",
      "time_period_end": "2022-06-26T00:00:00.0000000Z",
      "time_open": "2022-06-25T00:00:00.0000000Z",
      "time_close": "2022-06-25T23:59:59.0000000Z",
      "rate_open": 21212.477148775954,
      "rate_high": 21567.339827805416,
      "rate_low": 20898.089902185464,
      "rate_close": 21473.52626560847
   },
   {
      "time_period_start": "2022-06-26T00:00:00.0000000Z",
      "time_period_end": "2022-06-27T00:00:00.0000000Z",
      "time_open": "2022-06-26T00:00:00.0000000Z",
      "time_close": "2022-06-26T23:59:59.0000000Z",
      "rate_open": 21472.5479762435,
      "rate_high": 21857.28829495502,
      "rate_low": 20953.311124211414,
      "rate_close": 21013.320686651696
   },
   {
      "time_period_start": "2022-06-27T00:00:00.0000000Z",
      "time_period_end": "2022-06-28T00:00:00.0000000Z",
      "time_open": "2022-06-27T00:00:00.0000000Z",
      "time_close": "2022-06-27T23:59:57.0000000Z",
      "rate_open": 21012.475088292216,
      "rate_high": 21479.96208328208,
      "rate_low": 20508.112119170368,
      "rate_close": 20711.20312368354
   },
   {
      "time_period_start": "2022-06-28T00:00:00.0000000Z",
      "time_period_end": "2022-06-29T00:00:00.0000000Z",
      "time_open": "2022-06-28T00:00:00.0000000Z",
      "time_close": "2022-06-28T23:59:59.0000000Z",
      "rate_open": 20717.64883929411,
      "rate_high": 21180.033800254598,
      "rate_low": 20181.495586250603,
      "rate_close": 20253.620131539923
   },
   {
      "time_period_start": "2022-06-29T00:00:00.0000000Z",
      "time_period_end": "2022-06-30T00:00:00.0000000Z",
      "time_open": "2022-06-29T00:00:00.0000000Z",
      "time_close": "2022-06-29T23:59:00.0000000Z",
      "rate_open": 20254.364351510863,
      "rate_high": 20407.01450460299,
      "rate_low": 19851.00803087611,
      "rate_close": 20112.41930382919
   },
   {
      "time_period_start": "2022-06-30T00:00:00.0000000Z",
      "time_period_end": "2022-07-01T00:00:00.0000000Z",
      "time_open": "2022-06-30T00:00:00.0000000Z",
      "time_close": "2022-06-30T23:59:00.0000000Z",
      "rate_open": 20102.639026504497,
      "rate_high": 20155.654709221533,
      "rate_low": 18625.83611707083,
      "rate_close": 19856.366703221633
   },
   {
      "time_period_start": "2022-07-01T00:00:00.0000000Z",
      "time_period_end": "2022-07-02T00:00:00.0000000Z",
      "time_open": "2022-07-01T00:00:00.0000000Z",
      "time_close": "2022-07-01T23:59:00.0000000Z",
      "rate_open": 19918.314362653913,
      "rate_high": 20691.530608143537,
      "rate_low": 18999.34747171621,
      "rate_close": 19228.558347576338
   },
   {
      "time_period_start": "2022-07-02T00:00:00.0000000Z",
      "time_period_end": "2022-07-03T00:00:00.0000000Z",
      "time_open": "2022-07-02T00:00:00.0000000Z",
      "time_close": "2022-07-02T23:59:00.0000000Z",
      "rate_open": 19250.12623619897,
      "rate_high": 19381.12443269756,
      "rate_low": 18983.601651394132,
      "rate_close": 19227.22825817908
   },
   {
      "time_period_start": "2022-07-03T00:00:00.0000000Z",
      "time_period_end": "2022-07-04T00:00:00.0000000Z",
      "time_open": "2022-07-03T00:00:00.0000000Z",
      "time_close": "2022-07-03T23:59:00.0000000Z",
      "rate_open": 19230.3250516923,
      "rate_high": 19612.008136074488,
      "rate_low": 18780.416932146618,
      "rate_close": 19295.60010610808
   },
   {
      "time_period_start": "2022-07-04T00:00:00.0000000Z",
      "time_period_end": "2022-07-05T00:00:00.0000000Z",
      "time_open": "2022-07-04T00:00:00.0000000Z",
      "time_close": "2022-07-04T23:59:00.0000000Z",
      "rate_open": 19294.246860784297,
      "rate_high": 20308.652800709035,
      "rate_low": 19034.365131307735,
      "rate_close": 20211.01319577983
   },
   {
      "time_period_start": "2022-07-05T00:00:00.0000000Z",
      "time_period_end": "2022-07-06T00:00:00.0000000Z",
      "time_open": "2022-07-05T00:00:00.0000000Z",
      "time_close": "2022-07-05T23:59:00.0000000Z",
      "rate_open": 20226.99763921961,
      "rate_high": 20714.59125762405,
      "rate_low": 19339.567652107435,
      "rate_close": 20189.68897160609
   },
   {
      "time_period_start": "2022-07-06T00:00:00.0000000Z",
      "time_period_end": "2022-07-07T00:00:00.0000000Z",
      "time_open": "2022-07-06T00:00:00.0000000Z",
      "time_close": "2022-07-06T23:59:00.0000000Z",
      "rate_open": 20169.008686817502,
      "rate_high": 20621.73444780652,
      "rate_low": 19785.377039845418,
      "rate_close": 20537.856954217885
   },
   {
      "time_period_start": "2022-07-07T00:00:00.0000000Z",
      "time_period_end": "2022-07-08T00:00:00.0000000Z",
      "time_open": "2022-07-07T00:00:00.0000000Z",
      "time_close": "2022-07-07T23:59:00.0000000Z",
      "rate_open": 20535.71651254493,
      "rate_high": 21823.671881146678,
      "rate_low": 20241.44326074766,
      "rate_close": 21648.70169310043
   },
   {
      "time_period_start": "2022-07-08T00:00:00.0000000Z",
      "time_period_end": "2022-07-09T00:00:00.0000000Z",
      "time_open": "2022-07-08T00:00:00.0000000Z",
      "time_close": "2022-07-08T23:59:00.0000000Z",
      "rate_open": 21624.386905582513,
      "rate_high": 22400.551653742878,
      "rate_low": 21197.970327222403,
      "rate_close": 21570.11394113858
   },
   {
      "time_period_start": "2022-07-09T00:00:00.0000000Z",
      "time_period_end": "2022-07-10T00:00:00.0000000Z",
      "time_open": "2022-07-09T00:00:00.0000000Z",
      "time_close": "2022-07-09T23:59:00.0000000Z",
      "rate_open": 21573.68514292983,
      "rate_high": 21942.601067863678,
      "rate_low": 21371.442758637975,
      "rate_close": 21571.112187871106
   },
   {
      "time_period_start": "2022-07-10T00:00:00.0000000Z",
      "time_period_end": "2022-07-11T00:00:00.0000000Z",
      "time_open": "2022-07-10T00:00:00.0000000Z",
      "time_close": "2022-07-10T23:59:00.0000000Z",
      "rate_open": 21572.24237594072,
      "rate_high": 21584.710771728827,
      "rate_low": 20682.633133637657,
      "rate_close": 20827.690952822388
   },
   {
      "time_period_start": "2022-07-11T00:00:00.0000000Z",
      "time_period_end": "2022-07-12T00:00:00.0000000Z",
      "time_open": "2022-07-11T00:00:00.0000000Z",
      "time_close": "2022-07-11T23:59:00.0000000Z",
      "rate_open": 20841.56813922388,
      "rate_high": 20841.56813922388,
      "rate_low": 19896.883894165414,
      "rate_close": 19948.172783055626
   },
   {
      "time_period_start": "2022-07-12T00:00:00.0000000Z",
      "time_period_end": "2022-07-13T00:00:00.0000000Z",
      "time_open": "2022-07-12T00:00:00.0000000Z",
      "time_close": "2022-07-12T23:59:00.0000000Z",
      "rate_open": 19969.502564133058,
      "rate_high": 20078.65914239097,
      "rate_low": 19274.94701659501,
      "rate_close": 19301.171494573184
   },
   {
      "time_period_start": "2022-07-13T00:00:00.0000000Z",
      "time_period_end": "2022-07-14T00:00:00.0000000Z",
      "time_open": "2022-07-13T00:00:00.0000000Z",
      "time_close": "2022-07-13T23:59:00.0000000Z",
      "rate_open": 19317.11200402725,
      "rate_high": 20324.62346080264,
      "rate_low": 18947.37143693012,
      "rate_close": 20248.62648506205
   },
   {
      "time_period_start": "2022-07-14T00:00:00.0000000Z",
      "time_period_end": "2022-07-15T00:00:00.0000000Z",
      "time_open": "2022-07-14T00:00:00.0000000Z",
      "time_close": "2022-07-14T23:59:00.0000000Z",
      "rate_open": 20243.619069636552,
      "rate_high": 20845.95400364894,
      "rate_low": 19672.121139426952,
      "rate_close": 20561.61985308764
   },
   {
      "time_period_start": "2022-07-15T00:00:00.0000000Z",
      "time_period_end": "2022-07-16T00:00:00.0000000Z",
      "time_open": "2022-07-15T00:00:00.0000000Z",
      "time_close": "2022-07-15T23:59:00.0000000Z",
      "rate_open": 20561.73360640521,
      "rate_high": 21162.64060217942,
      "rate_low": 20366.79804289309,
      "rate_close": 20808.359743361263
   },
   {
      "time_period_start": "2022-07-16T00:00:00.0000000Z",
      "time_period_end": "2022-07-17T00:00:00.0000000Z",
      "time_open": "2022-07-16T00:00:00.0000000Z",
      "time_close": "2022-07-16T23:59:00.0000000Z",
      "rate_open": 20810.572770877632,
      "rate_high": 21552.67259537686,
      "rate_low": 20480.222541047155,
      "rate_close": 21196.886370971522
   },
   {
      "time_period_start": "2022-07-17T00:00:00.0000000Z",
      "time_period_end": "2022-07-18T00:00:00.0000000Z",
      "time_open": "2022-07-17T00:00:00.0000000Z",
      "time_close": "2022-07-17T23:59:00.0000000Z",
      "rate_open": 21177.36659691883,
      "rate_high": 21629.101229529184,
      "rate_low": 20728.07685199721,
      "rate_close": 20752.564931622845
   },
   {
      "time_period_start": "2022-07-18T00:00:00.0000000Z",
      "time_period_end": "2022-07-19T00:00:00.0000000Z",
      "time_open": "2022-07-18T00:00:00.0000000Z",
      "time_close": "2022-07-18T23:59:00.0000000Z",
      "rate_open": 20764.93888854801,
      "rate_high": 22716.6879852406,
      "rate_low": 20737.006727565273,
      "rate_close": 22468.53729461679
   },
   {
      "time_period_start": "2022-07-19T00:00:00.0000000Z",
      "time_period_end": "2022-07-20T00:00:00.0000000Z",
      "time_open": "2022-07-19T00:00:00.0000000Z",
      "time_close": "2022-07-19T23:59:00.0000000Z",
      "rate_open": 22419.12396430303,
      "rate_high": 23753.858055073837,
      "rate_low": 21617.260871349183,
      "rate_close": 23417.99462983133
   },
   {
      "time_period_start": "2022-07-20T00:00:00.0000000Z",
      "time_period_end": "2022-07-21T00:00:00.0000000Z",
      "time_open": "2022-07-20T00:00:00.0000000Z",
      "time_close": "2022-07-20T23:59:00.0000000Z",
      "rate_open": 23406.96053693211,
      "rate_high": 24243.38899948588,
      "rate_low": 22967.59814299827,
      "rate_close": 23230.567843708595
   },
   {
      "time_period_start": "2022-07-21T00:00:00.0000000Z",
      "time_period_end": "2022-07-22T00:00:00.0000000Z",
      "time_open": "2022-07-21T00:00:00.0000000Z",
      "time_close": "2022-07-21T17:36:00.0000000Z",
      "rate_open": 23233.972582150625,
      "rate_high": 23403.590932714575,
      "rate_low": 22356.094140383324,
      "rate_close": 22861.42190928862
   },
   {
      "asset_id_base": "BTC",
      "asset_id_quote": "USD",
      "time_open": "2022-07-24T11:27:17.0000000Z",
      "rate_open": 22734.928479147333
   },
   {
      "asset_id_base": "BTC",
      "asset_id_quote": "USD",
      "time_open": "2022-07-24T11:31:55.0000000Z",
      "rate_open": 22732.452138884917
   },
   {
      "asset_id_base": "BTC",
      "asset_id_quote": "USD",
      "time_open": "2022-07-24T12:11:13.0000000Z",
      "rate_open": 22726.279569520106
   },
   {
      "asset_id_base": "BTC",
      "asset_id_quote": "USD",
      "time_open": "2022-07-24T12:12:13.0000000Z",
      "rate_open": 22720.55338451848
   },
   {
      "asset_id_base": "BTC",
      "asset_id_quote": "USD",
      "time_open": "2022-07-24T12:13:13.0000000Z",
      "rate_open": 22719.455808666695
   },
   {
      "asset_id_base": "BTC",
      "asset_id_quote": "USD",
      "time_open": "2022-07-24T12:14:13.0000000Z",
      "rate_open": 22721.31065157042
   },
   {
      "asset_id_base": "BTC",
      "asset_id_quote": "USD",
      "time_open": "2022-07-24T12:15:13.0000000Z",
      "rate_open": 22731.0963062742
   },
   {
      "asset_id_base": "BTC",
      "asset_id_quote": "USD",
      "time_open": "2022-07-24T12:16:13.0000000Z",
      "rate_open": 22718.33440647527
   },
   {
      "asset_id_base": "BTC",
      "asset_id_quote": "USD",
      "time_open": "2022-07-24T13:09:15.0000000Z",
      "rate_open": 22527.08681318659
   },
   {
      "asset_id_base": "BTC",
      "asset_id_quote": "USD",
      "time_open": "2022-07-24T13:13:45.0000000Z",
      "rate_open": 22542.347507351424
   },
   {
      "asset_id_base": "BTC",
      "asset_id_quote": "USD",
      "time_open": "2022-07-24T13:18:15.0000000Z",
      "rate_open": 22517.244956621355
   },
   {
      "asset_id_base": "BTC",
      "asset_id_quote": "USD",
      "time_open": "2022-07-24T13:22:45.0000000Z",
      "rate_open": 22499.320776743767
   },
   {
      "asset_id_base": "BTC",
      "asset_id_quote": "USD",
      "time_open": "2022-07-24T13:27:15.0000000Z",
      "rate_open": 22538.291447567066
   },
   {
      "asset_id_base": "BTC",
      "asset_id_quote": "USD",
      "time_open": "2022-07-24T13:31:45.0000000Z",
      "rate_open": 22543.585214582832
   },
   {
      "asset_id_base": "BTC",
      "asset_id_quote": "USD",
      "time_open": "2022-07-24T13:36:15.0000000Z",
      "rate_open": 22555.293555485434
   },
   {
      "asset_id_base": "BTC",
      "asset_id_quote": "USD",
      "time_open": "2022-07-24T13:40:45.0000000Z",
      "rate_open": 22564.16334878452
   },
   {
      "asset_id_base": "BTC",
      "asset_id_quote": "USD",
      "time_open": "2022-07-24T13:45:15.0000000Z",
      "rate_open": 22512.068587615016
   }
]